{
  "implicitDependencies": {
    "package.json": {
      "dependencies": "*",
      "devDependencies": "*"
    },
    ".eslintrc.json": "*"
  },
  "affected": {
    "defaultBase": "main"
  },
  "npmScope": "nx-nextjs-hasura",
  "tasksRunnerOptions": {
    "default": {
      "runner": "@nrwl/workspace/tasks-runners/default",
      "options": {
        "cacheableOperations": ["build", "lint", "test", "e2e"]
      }
    }
  },
  "projects": {
    "nx-nextjs-hasura": {
      "tags": []
    },
    "nx-nextjs-hasura-e2e": {
      "tags": [],
      "implicitDependencies": ["nx-nextjs-hasura"]
    },
    "nx-nextjs-hasura-admin": {
      "tags": []
    },
    "nx-nextjs-hasura-admin-e2e": {
      "tags": [],
      "implicitDependencies": ["nx-nextjs-hasura-admin"]
    }
  }
}
